﻿{
  "profiles": {
    "CNA_Tema2": {
      "commandName": "Project",
      "launchBrowser": false,
      "applicationUrl": "https://localhost:5001",
      "environmentVariables": {
        "ASPNETCORE_ENVIRONMENT": "Development"
      }
    }
  }
}
